EESchema Schematic File Version 2
LIBS:power
LIBS:device
LIBS:audio
LIBS:interface
LIBS:RF_Module_DNT24C-cache
EELAYER 25 0
EELAYER END
$Descr A4 11693 8268
encoding utf-8
Sheet 1 1
Title "RF Module DNT24P"
Date "2017-12-18"
Rev "1.0"
Comp "HiveGround Co., Ltd."
Comment1 "drawn by sompol"
Comment2 ""
Comment3 ""
Comment4 ""
$EndDescr
$Comp
L DNT24P U1
U 1 1 5A378A9D
P 6350 3650
F 0 "U1" H 5500 4750 60  0000 C CNN
F 1 "DNT24C" H 6350 3600 60  0000 C CNN
F 2 "HG_Devices:DNT24C" H 5400 4650 60  0001 C CNN
F 3 "" H 5500 4750 60  0001 C CNN
F 4 "DNT24C" H 5600 4850 60  0001 C CNN "partno"
	1    6350 3650
	1    0    0    -1  
$EndComp
$Comp
L GND #PWR01
U 1 1 5A379639
P 4650 2700
F 0 "#PWR01" H 4650 2450 50  0001 C CNN
F 1 "GND" H 4650 2550 50  0000 C CNN
F 2 "" H 4650 2700 50  0001 C CNN
F 3 "" H 4650 2700 50  0001 C CNN
	1    4650 2700
	0    1    1    0   
$EndComp
Text Label 4750 2800 0    60   ~ 0
DIAG_TX
Text Label 4750 2900 0    60   ~ 0
DIAG_RX
Text Label 4750 3100 0    60   ~ 0
UART_TX
Text Label 4750 3200 0    60   ~ 0
UART_RX
$Comp
L GND #PWR02
U 1 1 5A37BB99
P 4650 4400
F 0 "#PWR02" H 4650 4150 50  0001 C CNN
F 1 "GND" H 4650 4250 50  0000 C CNN
F 2 "" H 4650 4400 50  0001 C CNN
F 3 "" H 4650 4400 50  0001 C CNN
	1    4650 4400
	1    0    0    -1  
$EndComp
$Comp
L GND #PWR03
U 1 1 5A37BCA0
P 7700 4100
F 0 "#PWR03" H 7700 3850 50  0001 C CNN
F 1 "GND" H 7700 3950 50  0000 C CNN
F 2 "" H 7700 4100 50  0001 C CNN
F 3 "" H 7700 4100 50  0001 C CNN
	1    7700 4100
	-1   0    0    -1  
$EndComp
$Comp
L C C2
U 1 1 5A37D712
P 5000 4200
F 0 "C2" H 5025 4300 50  0000 L CNN
F 1 "10nF" H 5025 4100 50  0000 L CNN
F 2 "Resistors_SMD:R_0603_HandSoldering" H 5038 4050 50  0001 C CNN
F 3 "" H 5000 4200 50  0001 C CNN
F 4 "MC0603B103K500CT" H 5000 4200 60  0001 C CNN "partno"
	1    5000 4200
	1    0    0    -1  
$EndComp
$Comp
L C C1
U 1 1 5A37D7DC
P 4650 4200
F 0 "C1" H 4675 4300 50  0000 L CNN
F 1 "100nF" H 4675 4100 50  0000 L CNN
F 2 "Resistors_SMD:R_0603_HandSoldering" H 4688 4050 50  0001 C CNN
F 3 "" H 4650 4200 50  0001 C CNN
F 4 "MC0603B104K500CT" H 4650 4200 60  0001 C CNN "partno"
	1    4650 4200
	1    0    0    -1  
$EndComp
$Comp
L CONN_01X06 J1
U 1 1 5A37E546
P 1750 2850
F 0 "J1" H 1750 3200 50  0000 C CNN
F 1 "CONN_01X06" V 1850 2850 50  0000 C CNN
F 2 "Connectors_Molex:Molex_PicoBlade_53261-0671_06x1.25mm_Angled" H 1750 2850 50  0001 C CNN
F 3 "" H 1750 2850 50  0001 C CNN
F 4 "53261-0671" H 1750 2850 60  0001 C CNN "partno"
	1    1750 2850
	-1   0    0    -1  
$EndComp
$Comp
L CONN_01X06 J2
U 1 1 5A37E879
P 1750 4050
F 0 "J2" H 1750 4400 50  0000 C CNN
F 1 "CONN_01X06" V 1850 4050 50  0000 C CNN
F 2 "Connectors_Molex:Molex_PicoBlade_53261-0671_06x1.25mm_Angled" H 1750 4050 50  0001 C CNN
F 3 "" H 1750 4050 50  0001 C CNN
F 4 "53261-0671" H 1750 4050 60  0001 C CNN "partno"
	1    1750 4050
	-1   0    0    -1  
$EndComp
$Comp
L GND #PWR04
U 1 1 5A37EF3E
P 2050 3100
F 0 "#PWR04" H 2050 2850 50  0001 C CNN
F 1 "GND" H 2050 2950 50  0000 C CNN
F 2 "" H 2050 3100 50  0001 C CNN
F 3 "" H 2050 3100 50  0001 C CNN
	1    2050 3100
	1    0    0    -1  
$EndComp
Text Notes 2250 2700 0    60   ~ 0
Pixhawk_TX
Text Notes 2250 2800 0    60   ~ 0
Pixhawk_RX
$Comp
L GND #PWR05
U 1 1 5A37FF13
P 2050 4300
F 0 "#PWR05" H 2050 4050 50  0001 C CNN
F 1 "GND" H 2050 4150 50  0000 C CNN
F 2 "" H 2050 4300 50  0001 C CNN
F 3 "" H 2050 4300 50  0001 C CNN
	1    2050 4300
	1    0    0    -1  
$EndComp
$Comp
L +5V #PWR06
U 1 1 5A3800AC
P 2050 3800
F 0 "#PWR06" H 2050 3650 50  0001 C CNN
F 1 "+5V" H 2050 3940 50  0000 C CNN
F 2 "" H 2050 3800 50  0001 C CNN
F 3 "" H 2050 3800 50  0001 C CNN
	1    2050 3800
	1    0    0    -1  
$EndComp
Text Notes 2250 3900 0    60   ~ 0
Pixhawk_TX
Text Notes 2250 4000 0    60   ~ 0
Pixhawk_RX
Text Notes 1650 3600 0    60   ~ 0
Pixhawk_Telem1
Text Notes 1700 2400 0    60   ~ 0
Pixhawk_Telem2
$Comp
L +5V #PWR07
U 1 1 5A381A30
P 7900 4000
F 0 "#PWR07" H 7900 3850 50  0001 C CNN
F 1 "+5V" H 7900 4140 50  0000 C CNN
F 2 "" H 7900 4000 50  0001 C CNN
F 3 "" H 7900 4000 50  0001 C CNN
	1    7900 4000
	1    0    0    -1  
$EndComp
$Comp
L +5V #PWR08
U 1 1 5A381F6C
P 4650 4000
F 0 "#PWR08" H 4650 3850 50  0001 C CNN
F 1 "+5V" H 4650 4140 50  0000 C CNN
F 2 "" H 4650 4000 50  0001 C CNN
F 3 "" H 4650 4000 50  0001 C CNN
	1    4650 4000
	1    0    0    -1  
$EndComp
$Comp
L R R3
U 1 1 5A3B3E1F
P 6700 1950
F 0 "R3" V 6780 1950 50  0000 C CNN
F 1 "10k" V 6700 1950 50  0000 C CNN
F 2 "Resistors_SMD:R_0603_HandSoldering" V 6630 1950 50  0001 C CNN
F 3 "" H 6700 1950 50  0001 C CNN
F 4 "MCWR06X1002FTL" H 6700 1950 60  0001 C CNN "partno"
	1    6700 1950
	0    -1   -1   0   
$EndComp
$Comp
L LED D3
U 1 1 5A3B3E26
P 6250 1950
F 0 "D3" H 6250 2050 50  0000 C CNN
F 1 "LED_RED" H 6250 1800 50  0000 C CNN
F 2 "LEDs:LED_0603_HandSoldering" H 6250 1950 50  0001 C CNN
F 3 "" H 6250 1950 50  0001 C CNN
F 4 "LG-192HRF-CT" H 6250 1950 60  0001 C CNN "partno"
	1    6250 1950
	-1   0    0    1   
$EndComp
$Comp
L GND #PWR09
U 1 1 5A3B3E2C
P 7000 1950
F 0 "#PWR09" H 7000 1700 50  0001 C CNN
F 1 "GND" H 7000 1800 50  0000 C CNN
F 2 "" H 7000 1950 50  0001 C CNN
F 3 "" H 7000 1950 50  0001 C CNN
	1    7000 1950
	1    0    0    -1  
$EndComp
$Comp
L +5V #PWR010
U 1 1 5A3B3E58
P 5950 1950
F 0 "#PWR010" H 5950 1800 50  0001 C CNN
F 1 "+5V" H 5950 2090 50  0000 C CNN
F 2 "" H 5950 1950 50  0001 C CNN
F 3 "" H 5950 1950 50  0001 C CNN
	1    5950 1950
	1    0    0    -1  
$EndComp
Text Notes 5800 1600 0    60   ~ 0
Power-on LED
Wire Notes Line
	7200 1650 5800 1650
Wire Notes Line
	7200 2250 7200 1650
Wire Notes Line
	5800 2250 7200 2250
Wire Notes Line
	5800 1650 5800 2250
Wire Wire Line
	5950 1950 6100 1950
Wire Wire Line
	6850 1950 7000 1950
Wire Wire Line
	6400 1950 6550 1950
Wire Wire Line
	7450 4000 7900 4000
Wire Wire Line
	4050 4000 4050 3100
Wire Wire Line
	1950 4000 4050 4000
Wire Wire Line
	4150 3900 4150 3200
Wire Wire Line
	1950 3900 4150 3900
Wire Wire Line
	1950 3800 2050 3800
Wire Wire Line
	1950 4300 2050 4300
Wire Wire Line
	1950 3100 2050 3100
Connection ~ 5000 4400
Wire Wire Line
	5250 4400 5250 4100
Wire Wire Line
	5000 4400 5000 4350
Wire Wire Line
	4650 4400 5250 4400
Wire Wire Line
	4650 4350 4650 4400
Connection ~ 5000 4000
Wire Wire Line
	5000 4050 5000 4000
Wire Wire Line
	4650 4000 4650 4050
Wire Wire Line
	4650 4000 5250 4000
Connection ~ 7700 2900
Wire Wire Line
	7450 2900 7700 2900
Wire Wire Line
	7700 2700 7700 4100
Wire Wire Line
	7450 2700 7700 2700
Wire Wire Line
	4650 2700 5250 2700
Wire Wire Line
	7700 4100 7450 4100
Wire Wire Line
	4150 3200 5250 3200
Wire Wire Line
	4050 3100 5250 3100
Wire Wire Line
	1950 2800 5250 2800
Wire Wire Line
	3150 2900 5250 2900
Wire Wire Line
	3150 2900 3150 2700
Wire Wire Line
	3150 2700 1950 2700
$EndSCHEMATC
