G04 #@! TF.FileFunction,Copper,L2,Bot,Signal*
%FSLAX46Y46*%
G04 Gerber Fmt 4.6, Leading zero omitted, Abs format (unit mm)*
G04 Created by KiCad (PCBNEW 4.0.6) date 06/13/18 13:43:10*
%MOMM*%
%LPD*%
G01*
G04 APERTURE LIST*
%ADD10C,0.100000*%
%ADD11C,4.400000*%
%ADD12C,0.508000*%
%ADD13C,0.812800*%
%ADD14C,0.254000*%
%ADD15C,0.304800*%
%ADD16C,0.406400*%
%ADD17C,0.508000*%
G04 APERTURE END LIST*
D10*
D11*
X-2500000Y27300000D03*
X-2500000Y3250000D03*
X41750000Y15250000D03*
D12*
X21010880Y29580840D03*
X22560280Y29603700D03*
D13*
X7000000Y27000000D03*
X9500000Y27000000D03*
X38750000Y7250000D03*
X41250000Y11000000D03*
X36250000Y11000000D03*
X36250000Y15250000D03*
X36500000Y21000000D03*
X41500000Y18750000D03*
X41500000Y23250000D03*
X39250000Y25750000D03*
X35750000Y27000000D03*
X32000000Y27000000D03*
D12*
X34290000Y4445000D03*
X31115000Y4445000D03*
X3810000Y4445000D03*
X1905000Y26670000D03*
X27940000Y4445000D03*
X25400000Y4445000D03*
X22860000Y4445000D03*
X20320000Y4445000D03*
X17780000Y4445000D03*
X15240000Y4445000D03*
X12700000Y4445000D03*
X6985000Y4445000D03*
X10160000Y4445000D03*
X1905000Y24765000D03*
X3810000Y24765000D03*
D13*
X39196835Y4437178D03*
X13716000Y25400000D03*
D12*
X43485009Y27634991D03*
X46990000Y10160000D03*
X41869217Y27498222D03*
X45720000Y10160000D03*
D14*
X21010880Y29580840D02*
X22537420Y29580840D01*
D15*
X9500000Y27000000D02*
X7000000Y27000000D01*
X41250000Y11000000D02*
X41250000Y9750000D01*
X41250000Y9750000D02*
X38750000Y7250000D01*
X36250000Y15250000D02*
X36250000Y11000000D01*
X39250000Y25750000D02*
X39250000Y23750000D01*
X39250000Y23750000D02*
X36500000Y21000000D01*
X41500000Y18750000D02*
X36500000Y18750000D01*
X39250000Y25750000D02*
X41500000Y23500000D01*
X41500000Y23500000D02*
X41500000Y23250000D01*
X32000000Y27000000D02*
X35750000Y27000000D01*
D14*
X22537420Y29580840D02*
X22560280Y29603700D01*
D16*
X26327604Y28575000D02*
X21079460Y28575000D01*
X21079460Y28575000D02*
X16373536Y28575000D01*
D14*
X21010880Y29580840D02*
X21010880Y28643580D01*
X21010880Y28643580D02*
X21079460Y28575000D01*
X31115000Y4445000D02*
X34290000Y4445000D01*
X27940000Y4445000D02*
X31115000Y4445000D01*
X6985000Y4445000D02*
X3810000Y4445000D01*
X1905000Y24765000D02*
X1905000Y26670000D01*
X25400000Y4445000D02*
X27940000Y4445000D01*
X22860000Y4445000D02*
X25400000Y4445000D01*
X20320000Y4445000D02*
X22860000Y4445000D01*
X17780000Y4445000D02*
X20320000Y4445000D01*
X15240000Y4445000D02*
X17780000Y4445000D01*
X12700000Y4445000D02*
X15240000Y4445000D01*
X10160000Y4445000D02*
X12700000Y4445000D01*
X10160000Y4445000D02*
X6985000Y4445000D01*
X3810000Y24765000D02*
X1905000Y24765000D01*
X4445000Y24765000D02*
X3810000Y24765000D01*
X6985000Y27305000D02*
X4445000Y24765000D01*
D16*
X16373536Y28575000D02*
X15798800Y28575000D01*
X26353006Y28549598D02*
X26327604Y28575000D01*
X29770000Y28237006D02*
X29457408Y28549598D01*
X29457408Y28549598D02*
X26353006Y28549598D01*
X29770000Y27000000D02*
X29770000Y28237006D01*
X15798800Y28575000D02*
X12269600Y28575000D01*
X12269600Y28575000D02*
X11990000Y28295400D01*
X11990000Y28295400D02*
X11990000Y27000000D01*
D17*
X33750000Y24750000D02*
X14366000Y24750000D01*
X14366000Y24750000D02*
X13716000Y25400000D01*
X34250000Y24250000D02*
X33750000Y24750000D01*
X34250000Y7250000D02*
X34250000Y24250000D01*
X37062822Y4437178D02*
X34250000Y7250000D01*
X39196835Y4437178D02*
X37062822Y4437178D01*
D14*
X46990000Y24130000D02*
X43485009Y27634991D01*
X46990000Y10160000D02*
X46990000Y24130000D01*
X45720000Y10160000D02*
X45720000Y23647439D01*
X45720000Y23647439D02*
X42123216Y27244223D01*
X42123216Y27244223D02*
X41869217Y27498222D01*
G36*
X49044000Y456000D02*
X-6044000Y456000D01*
X-6044000Y2738860D01*
X-5081447Y2738860D01*
X-4689341Y1789891D01*
X-3963928Y1063210D01*
X-3015645Y669449D01*
X-1988860Y668553D01*
X-1039891Y1060659D01*
X-313210Y1786072D01*
X80551Y2734355D01*
X81447Y3761140D01*
X-310659Y4710109D01*
X-1036072Y5436790D01*
X-1984355Y5830551D01*
X-3011140Y5831447D01*
X-3960109Y5439341D01*
X-4686790Y4713928D01*
X-5080551Y3765645D01*
X-5081447Y2738860D01*
X-6044000Y2738860D01*
X-6044000Y6044000D01*
X33500000Y6044000D01*
X33674504Y6078711D01*
X33822441Y6177559D01*
X33921289Y6325496D01*
X33956000Y6500000D01*
X33956000Y6645974D01*
X36613809Y3988165D01*
X36819818Y3850514D01*
X37062822Y3802178D01*
X38718146Y3802178D01*
X38750226Y3770042D01*
X39039524Y3649915D01*
X39352771Y3649642D01*
X39642279Y3769264D01*
X39863971Y3990569D01*
X39984098Y4279867D01*
X39984371Y4593114D01*
X39864749Y4882622D01*
X39643444Y5104314D01*
X39354146Y5224441D01*
X39040899Y5224714D01*
X38751391Y5105092D01*
X38718419Y5072178D01*
X37325848Y5072178D01*
X34885000Y7513026D01*
X34885000Y14738860D01*
X39168553Y14738860D01*
X39560659Y13789891D01*
X40286072Y13063210D01*
X41234355Y12669449D01*
X42261140Y12668553D01*
X43210109Y13060659D01*
X43936790Y13786072D01*
X44330551Y14734355D01*
X44331447Y15761140D01*
X43939341Y16710109D01*
X43213928Y17436790D01*
X42265645Y17830551D01*
X41238860Y17831447D01*
X40289891Y17439341D01*
X39563210Y16713928D01*
X39169449Y15765645D01*
X39168553Y14738860D01*
X34885000Y14738860D01*
X34885000Y24250000D01*
X34836664Y24493004D01*
X34699013Y24699013D01*
X34199013Y25199013D01*
X33993004Y25336664D01*
X33750000Y25385000D01*
X14629026Y25385000D01*
X14503496Y25510530D01*
X14503536Y25555936D01*
X14383914Y25845444D01*
X14162609Y26067136D01*
X13873311Y26187263D01*
X13560064Y26187536D01*
X13270556Y26067914D01*
X13048864Y25846609D01*
X12928737Y25557311D01*
X12928464Y25244064D01*
X13048086Y24954556D01*
X13269391Y24732864D01*
X13558689Y24612737D01*
X13605278Y24612696D01*
X13761974Y24456000D01*
X-6044000Y24456000D01*
X-6044000Y26788860D01*
X-5081447Y26788860D01*
X-4689341Y25839891D01*
X-3963928Y25113210D01*
X-3015645Y24719449D01*
X-1988860Y24718553D01*
X-1039891Y25110659D01*
X-313210Y25836072D01*
X80551Y26784355D01*
X81064Y27372467D01*
X41234107Y27372467D01*
X41330577Y27138994D01*
X41509049Y26960209D01*
X41742354Y26863333D01*
X41785724Y26863295D01*
X45212000Y23437019D01*
X45212000Y10550128D01*
X45181987Y10520168D01*
X45085111Y10286863D01*
X45084890Y10034245D01*
X45181360Y9800772D01*
X45359832Y9621987D01*
X45593137Y9525111D01*
X45845755Y9524890D01*
X46079228Y9621360D01*
X46258013Y9799832D01*
X46354889Y10033137D01*
X46354890Y10034245D01*
X46451360Y9800772D01*
X46629832Y9621987D01*
X46863137Y9525111D01*
X47115755Y9524890D01*
X47349228Y9621360D01*
X47528013Y9799832D01*
X47624889Y10033137D01*
X47625110Y10285755D01*
X47528640Y10519228D01*
X47498000Y10549922D01*
X47498000Y24130000D01*
X47459331Y24324403D01*
X47349210Y24489210D01*
X44120082Y27718338D01*
X44120119Y27760746D01*
X44023649Y27994219D01*
X43845177Y28173004D01*
X43611872Y28269880D01*
X43359254Y28270101D01*
X43125781Y28173631D01*
X42946996Y27995159D01*
X42850120Y27761854D01*
X42849899Y27509236D01*
X42946369Y27275763D01*
X43124841Y27096978D01*
X43358146Y27000102D01*
X43401516Y27000064D01*
X46482000Y23919580D01*
X46482000Y10550128D01*
X46451987Y10520168D01*
X46355111Y10286863D01*
X46355110Y10285755D01*
X46258640Y10519228D01*
X46228000Y10549922D01*
X46228000Y23647439D01*
X46189331Y23841842D01*
X46079210Y24006649D01*
X42504290Y27581569D01*
X42504327Y27623977D01*
X42407857Y27857450D01*
X42229385Y28036235D01*
X41996080Y28133111D01*
X41743462Y28133332D01*
X41509989Y28036862D01*
X41331204Y27858390D01*
X41234328Y27625085D01*
X41234107Y27372467D01*
X81064Y27372467D01*
X81447Y27811140D01*
X-310659Y28760109D01*
X-1036072Y29486790D01*
X-1984355Y29880551D01*
X-3011140Y29881447D01*
X-3960109Y29489341D01*
X-4686790Y28763928D01*
X-5080551Y27815645D01*
X-5081447Y26788860D01*
X-6044000Y26788860D01*
X-6044000Y30044000D01*
X49044000Y30044000D01*
X49044000Y456000D01*
X49044000Y456000D01*
G37*
X49044000Y456000D02*
X-6044000Y456000D01*
X-6044000Y2738860D01*
X-5081447Y2738860D01*
X-4689341Y1789891D01*
X-3963928Y1063210D01*
X-3015645Y669449D01*
X-1988860Y668553D01*
X-1039891Y1060659D01*
X-313210Y1786072D01*
X80551Y2734355D01*
X81447Y3761140D01*
X-310659Y4710109D01*
X-1036072Y5436790D01*
X-1984355Y5830551D01*
X-3011140Y5831447D01*
X-3960109Y5439341D01*
X-4686790Y4713928D01*
X-5080551Y3765645D01*
X-5081447Y2738860D01*
X-6044000Y2738860D01*
X-6044000Y6044000D01*
X33500000Y6044000D01*
X33674504Y6078711D01*
X33822441Y6177559D01*
X33921289Y6325496D01*
X33956000Y6500000D01*
X33956000Y6645974D01*
X36613809Y3988165D01*
X36819818Y3850514D01*
X37062822Y3802178D01*
X38718146Y3802178D01*
X38750226Y3770042D01*
X39039524Y3649915D01*
X39352771Y3649642D01*
X39642279Y3769264D01*
X39863971Y3990569D01*
X39984098Y4279867D01*
X39984371Y4593114D01*
X39864749Y4882622D01*
X39643444Y5104314D01*
X39354146Y5224441D01*
X39040899Y5224714D01*
X38751391Y5105092D01*
X38718419Y5072178D01*
X37325848Y5072178D01*
X34885000Y7513026D01*
X34885000Y14738860D01*
X39168553Y14738860D01*
X39560659Y13789891D01*
X40286072Y13063210D01*
X41234355Y12669449D01*
X42261140Y12668553D01*
X43210109Y13060659D01*
X43936790Y13786072D01*
X44330551Y14734355D01*
X44331447Y15761140D01*
X43939341Y16710109D01*
X43213928Y17436790D01*
X42265645Y17830551D01*
X41238860Y17831447D01*
X40289891Y17439341D01*
X39563210Y16713928D01*
X39169449Y15765645D01*
X39168553Y14738860D01*
X34885000Y14738860D01*
X34885000Y24250000D01*
X34836664Y24493004D01*
X34699013Y24699013D01*
X34199013Y25199013D01*
X33993004Y25336664D01*
X33750000Y25385000D01*
X14629026Y25385000D01*
X14503496Y25510530D01*
X14503536Y25555936D01*
X14383914Y25845444D01*
X14162609Y26067136D01*
X13873311Y26187263D01*
X13560064Y26187536D01*
X13270556Y26067914D01*
X13048864Y25846609D01*
X12928737Y25557311D01*
X12928464Y25244064D01*
X13048086Y24954556D01*
X13269391Y24732864D01*
X13558689Y24612737D01*
X13605278Y24612696D01*
X13761974Y24456000D01*
X-6044000Y24456000D01*
X-6044000Y26788860D01*
X-5081447Y26788860D01*
X-4689341Y25839891D01*
X-3963928Y25113210D01*
X-3015645Y24719449D01*
X-1988860Y24718553D01*
X-1039891Y25110659D01*
X-313210Y25836072D01*
X80551Y26784355D01*
X81064Y27372467D01*
X41234107Y27372467D01*
X41330577Y27138994D01*
X41509049Y26960209D01*
X41742354Y26863333D01*
X41785724Y26863295D01*
X45212000Y23437019D01*
X45212000Y10550128D01*
X45181987Y10520168D01*
X45085111Y10286863D01*
X45084890Y10034245D01*
X45181360Y9800772D01*
X45359832Y9621987D01*
X45593137Y9525111D01*
X45845755Y9524890D01*
X46079228Y9621360D01*
X46258013Y9799832D01*
X46354889Y10033137D01*
X46354890Y10034245D01*
X46451360Y9800772D01*
X46629832Y9621987D01*
X46863137Y9525111D01*
X47115755Y9524890D01*
X47349228Y9621360D01*
X47528013Y9799832D01*
X47624889Y10033137D01*
X47625110Y10285755D01*
X47528640Y10519228D01*
X47498000Y10549922D01*
X47498000Y24130000D01*
X47459331Y24324403D01*
X47349210Y24489210D01*
X44120082Y27718338D01*
X44120119Y27760746D01*
X44023649Y27994219D01*
X43845177Y28173004D01*
X43611872Y28269880D01*
X43359254Y28270101D01*
X43125781Y28173631D01*
X42946996Y27995159D01*
X42850120Y27761854D01*
X42849899Y27509236D01*
X42946369Y27275763D01*
X43124841Y27096978D01*
X43358146Y27000102D01*
X43401516Y27000064D01*
X46482000Y23919580D01*
X46482000Y10550128D01*
X46451987Y10520168D01*
X46355111Y10286863D01*
X46355110Y10285755D01*
X46258640Y10519228D01*
X46228000Y10549922D01*
X46228000Y23647439D01*
X46189331Y23841842D01*
X46079210Y24006649D01*
X42504290Y27581569D01*
X42504327Y27623977D01*
X42407857Y27857450D01*
X42229385Y28036235D01*
X41996080Y28133111D01*
X41743462Y28133332D01*
X41509989Y28036862D01*
X41331204Y27858390D01*
X41234328Y27625085D01*
X41234107Y27372467D01*
X81064Y27372467D01*
X81447Y27811140D01*
X-310659Y28760109D01*
X-1036072Y29486790D01*
X-1984355Y29880551D01*
X-3011140Y29881447D01*
X-3960109Y29489341D01*
X-4686790Y28763928D01*
X-5080551Y27815645D01*
X-5081447Y26788860D01*
X-6044000Y26788860D01*
X-6044000Y30044000D01*
X49044000Y30044000D01*
X49044000Y456000D01*
M02*
