G04 #@! TF.FileFunction,Legend,Bot*
%FSLAX46Y46*%
G04 Gerber Fmt 4.6, Leading zero omitted, Abs format (unit mm)*
G04 Created by KiCad (PCBNEW 4.0.6) date 06/13/18 13:43:10*
%MOMM*%
%LPD*%
G01*
G04 APERTURE LIST*
%ADD10C,0.100000*%
%ADD11C,0.300000*%
%ADD12C,4.501600*%
G04 APERTURE END LIST*
D10*
D11*
X48938571Y28974284D02*
X48224286Y29474284D01*
X48938571Y29831427D02*
X47438571Y29831427D01*
X47438571Y29259999D01*
X47510000Y29117141D01*
X47581429Y29045713D01*
X47724286Y28974284D01*
X47938571Y28974284D01*
X48081429Y29045713D01*
X48152857Y29117141D01*
X48224286Y29259999D01*
X48224286Y29831427D01*
X48152857Y27831427D02*
X48152857Y28331427D01*
X48938571Y28331427D02*
X47438571Y28331427D01*
X47438571Y27617141D01*
X49081429Y27402856D02*
X49081429Y26259999D01*
X48938571Y25902856D02*
X47438571Y25902856D01*
X48510000Y25402856D01*
X47438571Y24902856D01*
X48938571Y24902856D01*
X48938571Y23974284D02*
X48867143Y24117142D01*
X48795714Y24188570D01*
X48652857Y24259999D01*
X48224286Y24259999D01*
X48081429Y24188570D01*
X48010000Y24117142D01*
X47938571Y23974284D01*
X47938571Y23759999D01*
X48010000Y23617142D01*
X48081429Y23545713D01*
X48224286Y23474284D01*
X48652857Y23474284D01*
X48795714Y23545713D01*
X48867143Y23617142D01*
X48938571Y23759999D01*
X48938571Y23974284D01*
X48938571Y22188570D02*
X47438571Y22188570D01*
X48867143Y22188570D02*
X48938571Y22331427D01*
X48938571Y22617141D01*
X48867143Y22759999D01*
X48795714Y22831427D01*
X48652857Y22902856D01*
X48224286Y22902856D01*
X48081429Y22831427D01*
X48010000Y22759999D01*
X47938571Y22617141D01*
X47938571Y22331427D01*
X48010000Y22188570D01*
X47938571Y20831427D02*
X48938571Y20831427D01*
X47938571Y21474284D02*
X48724286Y21474284D01*
X48867143Y21402856D01*
X48938571Y21259998D01*
X48938571Y21045713D01*
X48867143Y20902856D01*
X48795714Y20831427D01*
X48938571Y19902855D02*
X48867143Y20045713D01*
X48724286Y20117141D01*
X47438571Y20117141D01*
X48867143Y18759999D02*
X48938571Y18902856D01*
X48938571Y19188570D01*
X48867143Y19331427D01*
X48724286Y19402856D01*
X48152857Y19402856D01*
X48010000Y19331427D01*
X47938571Y19188570D01*
X47938571Y18902856D01*
X48010000Y18759999D01*
X48152857Y18688570D01*
X48295714Y18688570D01*
X48438571Y19402856D01*
X49081429Y18402856D02*
X49081429Y17259999D01*
X48938571Y16902856D02*
X47438571Y16902856D01*
X47438571Y16545713D01*
X47510000Y16331428D01*
X47652857Y16188570D01*
X47795714Y16117142D01*
X48081429Y16045713D01*
X48295714Y16045713D01*
X48581429Y16117142D01*
X48724286Y16188570D01*
X48867143Y16331428D01*
X48938571Y16545713D01*
X48938571Y16902856D01*
X48938571Y15402856D02*
X47438571Y15402856D01*
X48938571Y14545713D01*
X47438571Y14545713D01*
X47438571Y14045713D02*
X47438571Y13188570D01*
X48938571Y13617141D02*
X47438571Y13617141D01*
X47581429Y12759999D02*
X47510000Y12688570D01*
X47438571Y12545713D01*
X47438571Y12188570D01*
X47510000Y12045713D01*
X47581429Y11974284D01*
X47724286Y11902856D01*
X47867143Y11902856D01*
X48081429Y11974284D01*
X48938571Y12831427D01*
X48938571Y11902856D01*
X47938571Y10617142D02*
X48938571Y10617142D01*
X47367143Y10974285D02*
X48438571Y11331428D01*
X48438571Y10402856D01*
X48795714Y8974285D02*
X48867143Y9045714D01*
X48938571Y9260000D01*
X48938571Y9402857D01*
X48867143Y9617142D01*
X48724286Y9760000D01*
X48581429Y9831428D01*
X48295714Y9902857D01*
X48081429Y9902857D01*
X47795714Y9831428D01*
X47652857Y9760000D01*
X47510000Y9617142D01*
X47438571Y9402857D01*
X47438571Y9260000D01*
X47510000Y9045714D01*
X47581429Y8974285D01*
X49081429Y8688571D02*
X49081429Y7545714D01*
X47938571Y7331428D02*
X48938571Y6974285D01*
X47938571Y6617143D01*
X48938571Y5260000D02*
X48938571Y6117143D01*
X48938571Y5688571D02*
X47438571Y5688571D01*
X47652857Y5831428D01*
X47795714Y5974286D01*
X47867143Y6117143D01*
X48795714Y4617143D02*
X48867143Y4545715D01*
X48938571Y4617143D01*
X48867143Y4688572D01*
X48795714Y4617143D01*
X48938571Y4617143D01*
X47438571Y3617143D02*
X47438571Y3474286D01*
X47510000Y3331429D01*
X47581429Y3260000D01*
X47724286Y3188571D01*
X48010000Y3117143D01*
X48367143Y3117143D01*
X48652857Y3188571D01*
X48795714Y3260000D01*
X48867143Y3331429D01*
X48938571Y3474286D01*
X48938571Y3617143D01*
X48867143Y3760000D01*
X48795714Y3831429D01*
X48652857Y3902857D01*
X48367143Y3974286D01*
X48010000Y3974286D01*
X47724286Y3902857D01*
X47581429Y3831429D01*
X47510000Y3760000D01*
X47438571Y3617143D01*
%LPC*%
D12*
X-2500000Y27300000D03*
X-2500000Y3250000D03*
X41750000Y15250000D03*
M02*
